<?xml version="1.0" encoding="UTF-8" standalone="no"?>
<!-- Created with Inkscape (http://www.inkscape.org/) -->

<svg
   xmlns:dc="http://purl.org/dc/elements/1.1/"
   xmlns:cc="http://creativecommons.org/ns#"
   xmlns:rdf="http://www.w3.org/1999/02/22-rdf-syntax-ns#"
   xmlns:svg="http://www.w3.org/2000/svg"
   xmlns="http://www.w3.org/2000/svg"
   xmlns:sodipodi="http://sodipodi.sourceforge.net/DTD/sodipodi-0.dtd"
   xmlns:inkscape="http://www.inkscape.org/namespaces/inkscape"
   width="263.04156mm"
   height="65.73645mm"
   viewBox="0 0 932.03704 232.92443"
   id="svg2"
   version="1.1"
   inkscape:version="0.91 r13725"
   sodipodi:docname="MRES_chemin.svg">
  <defs
     id="defs4" />
  <sodipodi:namedview
     id="base"
     pagecolor="#ffffff"
     bordercolor="#666666"
     borderopacity="1.0"
     inkscape:pageopacity="0.0"
     inkscape:pageshadow="2"
     inkscape:zoom="2.8"
     inkscape:cx="232.22081"
     inkscape:cy="30.900772"
     inkscape:document-units="px"
     inkscape:current-layer="g4198"
     showgrid="false"
     inkscape:window-width="1920"
     inkscape:window-height="1027"
     inkscape:window-x="0"
     inkscape:window-y="0"
     inkscape:window-maximized="1"
     fit-margin-top="0"
     fit-margin-left="0"
     fit-margin-right="0"
     fit-margin-bottom="0" />
  <metadata
     id="metadata7">
    <rdf:RDF>
      <cc:Work
         rdf:about="">
        <dc:format>image/svg+xml</dc:format>
        <dc:type
           rdf:resource="http://purl.org/dc/dcmitype/StillImage" />
        <dc:title />
      </cc:Work>
    </rdf:RDF>
  </metadata>
  <g
     inkscape:label="Calque 1"
     inkscape:groupmode="layer"
     id="layer1"
     transform="translate(169.74907,-109.32516)">
    <g
       id="g4198"
       transform="matrix(1.4032277,0,0,1.4032277,-160.10862,88.674167)">
      <rect
         id="rect4148"
         height="275.414"
         width="713.901"
         display="none"
         y="-13.498"
         x="-38.935001"
         style="display:none;fill:#5fc0c6" />
      <text
         id="text4152"
         font-size="17.8356"
         transform="matrix(0.9986,0.0523,-0.0523,0.9986,493.5645,97.6387)"
         style="font-size:17.8355999px;font-family:Roboto-Light;fill:#ffffff" />
      <text
         id="text4172"
         font-size="17.8356"
         transform="matrix(0.999,-0.0436,0.0436,0.999,171.9727,73.2944)"
         style="font-size:17.8355999px;font-family:Roboto-Light;fill:#ffffff" />
      <path
         id="path4184"
         d="m 95.507159,179.23799 c 0,0 -26.944061,2.85197 -50.471061,-2.90903 -23.527,-5.761 -50.8929996,-16.324 -50.8929996,-16.324"
         inkscape:connector-curvature="0"
         style="fill:none;stroke:#ffffff;stroke-width:2;stroke-linecap:round;stroke-linejoin:round;stroke-dasharray:1, 6"
         sodipodi:nodetypes="csc" />
      <path
         id="path4186"
         d="m 175.79064,176.72005 c 0,0 54.53446,-5.52709 59.03446,-18.52709 4.5,-13 1.5,-19 8,-32 6.5,-13 47.5,-13 47.5,-13"
         inkscape:connector-curvature="0"
         style="fill:none;stroke:#ffffff;stroke-width:2;stroke-linecap:round;stroke-linejoin:round;stroke-dasharray:1, 6"
         sodipodi:nodetypes="cssc" />
      <path
         id="path4188"
         d="m 369.3251,102.19296 c 0,0 38.5,-8.499997 40,-40.999997 1.5,-32.5 -17.5,-31.5 -23.5,-27 -6,4.5 -18,38 29,42.5 47,4.5 45.87357,-12.927756 53,-17"
         inkscape:connector-curvature="0"
         style="fill:none;stroke:#ffffff;stroke-width:2;stroke-linecap:round;stroke-linejoin:round;stroke-dasharray:1, 6"
         sodipodi:nodetypes="csssc" />
      <path
         id="path4190"
         d="m 593.60671,45.220055 c 3.56322,-5.344821 -2.02709,-24.009031 20.97291,-27.009031 23,-3 42.50903,-1.772576 42.50903,-1.772576"
         inkscape:connector-curvature="0"
         style="fill:none;stroke:#ffffff;stroke-width:2;stroke-linecap:round;stroke-linejoin:round;stroke-dasharray:1, 6"
         sodipodi:nodetypes="csc" />
    </g>
  </g>
</svg>
